{
  "light": {
    "abstract": [
      {
        "preview": "/assets/backgrounds/abstract/light/previews/1.png",
        "url": "/assets/backgrounds/abstract/light/full-size/1.png"
      },
      {
        "preview": "/assets/backgrounds/abstract/light/previews/2.png",
        "url": "/assets/backgrounds/abstract/light/full-size/2.png"
      },
      {
        "preview": "/assets/backgrounds/abstract/light/previews/3.png",
        "url": "/assets/backgrounds/abstract/light/full-size/3.png"
      },
      {
        "preview": "/assets/backgrounds/abstract/light/previews/4.png",
        "url": "/assets/backgrounds/abstract/light/full-size/4.png"
      },
      {
        "preview": "/assets/backgrounds/abstract/light/previews/5.png",
        "url": "/assets/backgrounds/abstract/light/full-size/5.png"
      },
      {
        "preview": "/assets/backgrounds/abstract/light/previews/6.png",
        "url": "/assets/backgrounds/abstract/light/full-size/6.png"
      },
      {
        "preview": "/assets/backgrounds/abstract/light/previews/7.png",
        "url": "/assets/backgrounds/abstract/light/full-size/7.png"
      },
      {
        "preview": "/assets/backgrounds/abstract/light/previews/8.png",
        "url": "/assets/backgrounds/abstract/light/full-size/8.png"
      },
      {
        "preview": "/assets/backgrounds/abstract/light/previews/9.png",
        "url": "/assets/backgrounds/abstract/light/full-size/9.png"
      },
      {
        "preview": "/assets/backgrounds/abstract/light/previews/10.png",
        "url": "/assets/backgrounds/abstract/light/full-size/10.png"
      },
      {
        "preview": "/assets/backgrounds/abstract/light/previews/11.png",
        "url": "/assets/backgrounds/abstract/light/full-size/11.png"
      },
      {
        "preview": "/assets/backgrounds/abstract/light/previews/12.png",
        "url": "/assets/backgrounds/abstract/light/full-size/12.png"
      },
      {
        "preview": "/assets/backgrounds/abstract/light/previews/13.png",
        "url": "/assets/backgrounds/abstract/light/full-size/13.png"
      },
      {
        "preview": "/assets/backgrounds/abstract/light/previews/14.png",
        "url": "/assets/backgrounds/abstract/light/full-size/14.png"
      },
      {
        "preview": "/assets/backgrounds/abstract/light/previews/15.png",
        "url": "/assets/backgrounds/abstract/light/full-size/15.png"
      }
    ],
    "image": [
      {
        "preview": "/assets/backgrounds/image/light/previews/1.png",
        "url": "/assets/backgrounds/image/light/full-size/1.png"
      },
      {
        "preview": "/assets/backgrounds/image/light/previews/2.png",
        "url": "/assets/backgrounds/image/light/full-size/2.png"
      },
      {
        "preview": "/assets/backgrounds/image/light/previews/3.png",
        "url": "/assets/backgrounds/image/light/full-size/3.png"
      },
      {
        "preview": "/assets/backgrounds/image/light/previews/4.png",
        "url": "/assets/backgrounds/image/light/full-size/4.png"
      },
      {
        "preview": "/assets/backgrounds/image/light/previews/5.png",
        "url": "/assets/backgrounds/image/light/full-size/5.png"
      },
      {
        "preview": "/assets/backgrounds/image/light/previews/6.png",
        "url": "/assets/backgrounds/image/light/full-size/6.png"
      },
      {
        "preview": "/assets/backgrounds/image/light/previews/7.png",
        "url": "/assets/backgrounds/image/light/full-size/7.png"
      },
      {
        "preview": "/assets/backgrounds/image/light/previews/8.png",
        "url": "/assets/backgrounds/image/light/full-size/8.png"
      },
      {
        "preview": "/assets/backgrounds/image/light/previews/9.png",
        "url": "/assets/backgrounds/image/light/full-size/9.png"
      },
      {
        "preview": "/assets/backgrounds/image/light/previews/10.png",
        "url": "/assets/backgrounds/image/light/full-size/10.png"
      },
      {
        "preview": "/assets/backgrounds/image/light/previews/11.png",
        "url": "/assets/backgrounds/image/light/full-size/11.png"
      },
      {
        "preview": "/assets/backgrounds/image/light/previews/12.png",
        "url": "/assets/backgrounds/image/light/full-size/12.png"
      },
      {
        "preview": "/assets/backgrounds/image/light/previews/13.png",
        "url": "/assets/backgrounds/image/light/full-size/13.png"
      },
      {
        "preview": "/assets/backgrounds/image/light/previews/14.png",
        "url": "/assets/backgrounds/image/light/full-size/14.png"
      },
      {
        "preview": "/assets/backgrounds/image/light/previews/15.png",
        "url": "/assets/backgrounds/image/light/full-size/15.png"
      }
    ]
  },
  "dark": {
    "abstract": [
      {
        "preview": "/assets/backgrounds/abstract/dark/previews/1.png",
        "url": "/assets/backgrounds/abstract/dark/full-size/1.png"
      },
      {
        "preview": "/assets/backgrounds/abstract/dark/previews/2.png",
        "url": "/assets/backgrounds/abstract/dark/full-size/2.png"
      },
      {
        "preview": "/assets/backgrounds/abstract/dark/previews/3.png",
        "url": "/assets/backgrounds/abstract/dark/full-size/3.png"
      },
      {
        "preview": "/assets/backgrounds/abstract/dark/previews/4.png",
        "url": "/assets/backgrounds/abstract/dark/full-size/4.png"
      },
      {
        "preview": "/assets/backgrounds/abstract/dark/previews/5.png",
        "url": "/assets/backgrounds/abstract/dark/full-size/5.png"
      },
      {
        "preview": "/assets/backgrounds/abstract/dark/previews/6.png",
        "url": "/assets/backgrounds/abstract/dark/full-size/6.png"
      },
      {
        "preview": "/assets/backgrounds/abstract/dark/previews/7.png",
        "url": "/assets/backgrounds/abstract/dark/full-size/7.png"
      },
      {
        "preview": "/assets/backgrounds/abstract/dark/previews/8.png",
        "url": "/assets/backgrounds/abstract/dark/full-size/8.png"
      },
      {
        "preview": "/assets/backgrounds/abstract/dark/previews/9.png",
        "url": "/assets/backgrounds/abstract/dark/full-size/9.png"
      },
      {
        "preview": "/assets/backgrounds/abstract/dark/previews/10.png",
        "url": "/assets/backgrounds/abstract/dark/full-size/10.png"
      },
      {
        "preview": "/assets/backgrounds/abstract/dark/previews/11.png",
        "url": "/assets/backgrounds/abstract/dark/full-size/11.png"
      },
      {
        "preview": "/assets/backgrounds/abstract/dark/previews/12.png",
        "url": "/assets/backgrounds/abstract/dark/full-size/12.png"
      },
      {
        "preview": "/assets/backgrounds/abstract/dark/previews/13.png",
        "url": "/assets/backgrounds/abstract/dark/full-size/13.png"
      },
      {
        "preview": "/assets/backgrounds/abstract/dark/previews/14.png",
        "url": "/assets/backgrounds/abstract/dark/full-size/14.png"
      },
      {
        "preview": "/assets/backgrounds/abstract/dark/previews/15.png",
        "url": "/assets/backgrounds/abstract/dark/full-size/15.png"
      }
    ],
    "image": [
      {
        "preview": "/assets/backgrounds/image/dark/previews/1.png",
        "url": "/assets/backgrounds/image/dark/full-size/1.png"
      },
      {
        "preview": "/assets/backgrounds/image/dark/previews/2.png",
        "url": "/assets/backgrounds/image/dark/full-size/2.png"
      },
      {
        "preview": "/assets/backgrounds/image/dark/previews/3.png",
        "url": "/assets/backgrounds/image/dark/full-size/3.png"
      },
      {
        "preview": "/assets/backgrounds/image/dark/previews/4.png",
        "url": "/assets/backgrounds/image/dark/full-size/4.png"
      },
      {
        "preview": "/assets/backgrounds/image/dark/previews/5.png",
        "url": "/assets/backgrounds/image/dark/full-size/5.png"
      },
      {
        "preview": "/assets/backgrounds/image/dark/previews/6.png",
        "url": "/assets/backgrounds/image/dark/full-size/6.png"
      },
      {
        "preview": "/assets/backgrounds/image/dark/previews/7.png",
        "url": "/assets/backgrounds/image/dark/full-size/7.png"
      },
      {
        "preview": "/assets/backgrounds/image/dark/previews/8.png",
        "url": "/assets/backgrounds/image/dark/full-size/8.png"
      },
      {
        "preview": "/assets/backgrounds/image/dark/previews/9.png",
        "url": "/assets/backgrounds/image/dark/full-size/9.png"
      },
      {
        "preview": "/assets/backgrounds/image/dark/previews/10.png",
        "url": "/assets/backgrounds/image/dark/full-size/10.png"
      },
      {
        "preview": "/assets/backgrounds/image/dark/previews/11.png",
        "url": "/assets/backgrounds/image/dark/full-size/11.png"
      },
      {
        "preview": "/assets/backgrounds/image/dark/previews/12.png",
        "url": "/assets/backgrounds/image/dark/full-size/12.png"
      },
      {
        "preview": "/assets/backgrounds/image/dark/previews/13.png",
        "url": "/assets/backgrounds/image/dark/full-size/13.png"
      },
      {
        "preview": "/assets/backgrounds/image/dark/previews/14.png",
        "url": "/assets/backgrounds/image/dark/full-size/14.png"
      },
      {
        "preview": "/assets/backgrounds/image/dark/previews/15.png",
        "url": "/assets/backgrounds/image/dark/full-size/15.png"
      }
    ]
  }
}
